{
  "development": {
    "postgres": {
      "client": "postgres",
      "connection": {
        "host": "localhost",
        "port": "5432",
        "database": "rest_api_dev",
        "user": "dev_user",
        "password": "password"
      }
    }
  },
  "staging": {
    "postgres": {
      "client": "postgres",
      "connection": {
        "host": "localhost",
        "port": "5432",
        "database": "rest_api_dev",
        "user": "dev_user",
        "password": "password"
      }
    }
  },
  "production": {
    "postgres": {
      "client": "postgres",
      "connection": {
        "host": "localhost",
        "port": "5432",
        "database": "rest_api_dev",
        "user": "dev_user",
        "password": "password"
      }
    }
  }
}
